…
wp_homicide_data
## # A tibble: 49,570 x 6
##    victim_race victim_age victim_sex disposition     city_state   outcome 
##    <fct>            <dbl> <fct>      <chr>           <chr>        <fct>   
##  1 non-white           78 male       Closed without… Albuquerque… unresol…
##  2 non-white           17 male       Closed by arre… Albuquerque… resolved
##  3 white               15 female     Closed without… Albuquerque… unresol…
##  4 non-white           32 male       Closed by arre… Albuquerque… resolved
##  5 white               72 female     Closed without… Albuquerque… unresol…
##  6 white               91 female     Open/No arrest  Albuquerque… unresol…
##  7 non-white           52 male       Closed by arre… Albuquerque… resolved
##  8 non-white           52 female     Closed by arre… Albuquerque… resolved
##  9 white               56 male       Open/No arrest  Albuquerque… unresol…
## 10 non-white           43 male       Open/No arrest  Albuquerque… unresol…
## # ... with 49,560 more rows
```
…
